…
Below is a table summarizing the number of items ordered from aisle. In
total, there are 134 aisles, with fresh vegetables and fresh fruits
holding the most items ordered by far.

``` r
instacart %>% 
  count(aisle) %>% 
  arrange(desc(n))
```

    ## # A tibble: 134 × 2
    ##    aisle                              n
    ##    <chr>                          <int>
    ##  1 fresh vegetables              150609
    ##  2 fresh fruits                  150473
    ##  3 packaged vegetables fruits     78493
    ##  4 yogurt                         55240
    ##  5 packaged cheese                41699
    ##  6 water seltzer sparkling water  36617
    ##  7 milk                           32644
    ##  8 chips pretzels                 31269
    ##  9 soy lactosefree                26240
    ## 10 bread                          23635
    ## # … with 124 more rows
…
#### Most commonly observed value(s) for snowfall

Next, I will find the most commonly observed values for snowfall.

``` r
ny_noaa_cleaned %>%
  group_by(snow) %>%
  summarize(snowfall = n()) %>%
  arrange(desc(snowfall))
```

    ## # A tibble: 282 × 2
    ##     snow snowfall
    ##    <int>    <int>
    ##  1     0  2008508
    ##  2    NA   381221
    ##  3    25    31022
    ##  4    13    23095
    ##  5    51    18274
    ##  6    76    10173
    ##  7     8     9962
    ##  8     5     9748
    ##  9    38     9197
    ## 10     3     8790
    ## # … with 272 more rows
…
